Project 1: Exploratory Data Analysis
…
covid.dataset %>% select(state, total_population.y, deaths) %>% 
    filter(!is.na(deaths)) %>% group_by(state) %>% mutate(state.death = sum(deaths), 
    state.pop = sum(total_population.y), fatality.prop = state.death/state.pop) %>% 
    distinct(fatality.prop) %>% arrange(desc(fatality.prop))

## # A tibble: 52 x 2
## # Groups:   state [52]
##    state                fatality.prop
##    <fct>                        <dbl>
##  1 New Jersey                0.00182 
##  2 New York                  0.00170 
##  3 Massachusetts             0.00141 
##  4 Connecticut               0.00127 
##  5 Louisiana                 0.00118 
##  6 Rhode Island              0.00107 
##  7 Mississippi               0.00105 
##  8 District of Columbia      0.000931
##  9 Arizona                   0.000831
## 10 Florida                   0.000757
## # … with 42 more rows
…
